<?xml version="1.0" standalone="no"?>
<!DOCTYPE svg PUBLIC "-//W3C//DTD SVG 1.1//EN" "http://www.w3.org/Graphics/SVG/1.1/DTD/svg11.dtd">
<svg xmlns="http://www.w3.org/2000/svg">
<metadata>Copyright (C) 2017 by original authors @ fontello.com</metadata>
<defs>
<font id="fontello" horiz-adv-x="1000" >
<font-face font-family="fontello" font-weight="400" font-stretch="normal" units-per-em="1000" ascent="850" descent="-150" />
<missing-glyph horiz-adv-x="1000" />
<glyph glyph-name="mail" unicode="&#xe910;" d="M30 586q-32 18-28 40 2 14 26 14l846 0q38 0 20-32-8-14-24-22-14-6-192-102t-182-98q-16-10-46-10-28 0-46 10-4 2-182 98t-192 102z m850-100q20 10 20-10l0-368q0-16-17-32t-33-16l-800 0q-16 0-33 16t-17 32l0 368q0 20 20 10l384-200q18-10 46-10t46 10z" horiz-adv-x="900" />
</font>
</defs>
</svg>