<?xml version="1.0" encoding="utf-8"?>
<!-- Generator: Adobe Illustrator 16.0.0, SVG Export Plug-In . SVG Version: 6.00 Build 0)  -->
<!DOCTYPE svg PUBLIC "-//W3C//DTD SVG 1.1//EN" "http://www.w3.org/Graphics/SVG/1.1/DTD/svg11.dtd">
<svg version="1.1" id="Layer_1" xmlns="http://www.w3.org/2000/svg" xmlns:xlink="http://www.w3.org/1999/xlink" x="0px" y="0px"
	 width="18px" height="18px" viewBox="0 0 18 18" enable-background="new 0 0 18 18" xml:space="preserve">
<g>
	<path fill="#106ED6" d="M3.345,7.26l0.942,8.091C4.338,15.735,6.243,16.998,9,17c2.757-0.002,4.662-1.265,4.713-1.649l0.941-8.091
		C13.215,8.045,11.062,8.417,9,8.417S4.785,8.045,3.345,7.26z M11.708,2.26l-0.734-0.794C10.689,1.073,10.383,1,9.783,1H8.217
		c-0.6,0-0.907,0.073-1.19,0.466L6.292,2.26C4.094,2.634,2.5,3.626,2.5,4.357V4.5c0,1.289,2.91,2.333,6.5,2.333s6.5-1.044,6.5-2.333
		V4.357C15.5,3.626,13.906,2.634,11.708,2.26z M10.77,4.115L9.699,3H8.301L7.23,4.115H5.776c0,0,1.593-1.849,1.806-2.1
		C7.745,1.823,7.911,1.75,8.126,1.75h1.747c0.217,0,0.382,0.073,0.545,0.265c0.213,0.251,1.806,2.1,1.806,2.1H10.77z"/>
</g>
</svg>
